RunNumber,BeamEnergy,Threshold,GearGeoFile

003354,120.0,6.0,gear_W3X3Y1-W352dash4-W398dash7
003363,120.0,6.0,gear_W3X3Y1-W352dash4-W398dash7
003364,120.0,6.0,gear_W3X3Y1-W352dash4-W398dash7
003369,120.0,6.0,gear_W3X3Y1-W352dash4-W398dash7
003370,120.0,6.0,gear_W3X3Y1-W352dash4-W398dash7
003371,120.0,6.0,gear_W3X3Y1-W352dash4-W398dash7
003385,120.0,6.0,gear_W3X3Y2-W91X1Y3
003386,120.0,6.0,gear_W3X3Y2-W91X1Y3
003387,120.0,6.0,gear_W3X3Y2-W91X1Y3
003388,120.0,6.0,gear_W3X3Y2-W91X1Y3
003389,120.0,6.0,gear_W3X3Y2-W91X1Y3
003393,120.0,6.0,gear_W3X3Y2-W91X1Y3
003394,120.0,6.0,gear_W3X3Y2-W91X1Y3
003400,120.0,6.0,gear_W3X3Y2-W91X1Y3
003402,120.0,6.0,gear_W3X3Y2-W91X1Y3
003403,120.0,6.0,gear_W3X3Y2-W91X1Y3
003404,120.0,6.0,gear_W3X3Y2-W91X1Y3
003405,120.0,6.0,gear_W3X3Y2-W91X1Y3
003406,120.0,6.0,gear_W3X3Y2-W91X1Y3
003407,120.0,6.0,gear_W3X3Y2-W91X1Y3
003409,120.0,6.0,gear_W3X3Y2-W91X1Y3
003411,120.0,6.0,gear_W3X3Y2-W91X1Y3
003419,120.0,6.0,gear_W3X3Y2-W91X1Y3_38deg_21deg
003420,120.0,6.0,gear_W3X3Y2-W91X1Y3_38deg_21deg
003422,120.0,6.0,gear_W3X3Y2-W91X1Y3_38deg_21deg
003428,120.0,6.0,gear_W3X3Y2-W91X1Y3_38deg_21deg
003429,120.0,6.0,gear_W3X3Y2-W91X1Y3_38deg_21deg
003431,120.0,6.0,gear_W3X3Y2-W91X1Y3_38deg_21deg
003433,120.0,6.0,gear_W3X3Y2-W91X1Y3_38deg_21deg
003435,120.0,6.0,gear_W3X3Y2-W91X1Y3_38deg_21deg
003480,120.0,6.0,gear_507-509
003482,120.0,6.0,gear_507-509
